{
  "tracks": {
    "href": "https://api.spotify.com/v1/search?query=ken+dodd&type=track&market=GB&offset=0&limit=3",
    "items": [
      {
        "album": {
          "album_type": "album",
          "artists": [
            {
              "external_urls": {
                "spotify": "https://open.spotify.com/artist/76o4kCpWMmBGl8jIYfRHTk"
              },
              "href": "https://api.spotify.com/v1/artists/76o4kCpWMmBGl8jIYfRHTk",
              "id": "76o4kCpWMmBGl8jIYfRHTk",
              "name": "Ken Dodd",
              "type": "artist",
              "uri": "spotify:artist:76o4kCpWMmBGl8jIYfRHTk"
            }
          ],
          "external_urls": {
            "spotify": "https://open.spotify.com/album/1D7E2EHMoQM3nP9drEwv7o"
          },
          "href": "https://api.spotify.com/v1/albums/1D7E2EHMoQM3nP9drEwv7o",
          "id": "1D7E2EHMoQM3nP9drEwv7o",
          "images": [
            {
              "height": 640,
              "url": "https://i.scdn.co/image/ab67616d0000b2731ea0a21d873289c511dfaf92",
              "width": 640
            },
            {
              "height": 300,
              "url": "https://i.scdn.co/image/ab67616d00001e021ea0a21d873289c511dfaf92",
              "width": 300
            },
            {
              "height": 64,
              "url": "https://i.scdn.co/image/ab67616d000048511ea0a21d873289c511dfaf92",
              "width": 64
            }
          ],
          "name": "Ken Dodd",
          "release_date": "1991",
          "release_date_precision": "year",
          "total_tracks": 24,
          "type": "album",
          "uri": "spotify:album:1D7E2EHMoQM3nP9drEwv7o"
        },
        "artists": [
          {
            "external_urls": {
              "spotify": "https://open.spotify.com/artist/76o4kCpWMmBGl8jIYfRHTk"
            },
            "href": "https://api.spotify.com/v1/artists/76o4kCpWMmBGl8jIYfRHTk",
            "id": "76o4kCpWMmBGl8jIYfRHTk",
            "name": "Ken Dodd",
            "type": "artist",
            "uri": "spotify:artist:76o4kCpWMmBGl8jIYfRHTk"
          }
        ],
        "disc_number": 1,
        "duration_ms": 120066,
        "explicit": false,
        "external_ids": {
          "isrc": "GBAYE6400258"
        },
        "external_urls": {
          "spotify": "https://open.spotify.com/track/1WaBuuaXGwrU4sFvxAjnkf"
        },
        "href": "https://api.spotify.com/v1/tracks/1WaBuuaXGwrU4sFvxAjnkf",
        "id": "1WaBuuaXGwrU4sFvxAjnkf",
        "is_local": false,
        "is_playable": true,
        "name": "Happiness",
        "popularity": 30,
        "preview_url": "https://p.scdn.co/mp3-preview/562c74eb408f2dca27076a61b517878e656eb55d?cid=774b29d4f13844c495f206cafdad9c86",
        "track_number": 8,
        "type": "track",
        "uri": "spotify:track:1WaBuuaXGwrU4sFvxAjnkf"
      },
      {
        "album": {
          "album_type": "compilation",
          "artists": [
            {
              "external_urls": {
                "spotify": "https://open.spotify.com/artist/76o4kCpWMmBGl8jIYfRHTk"
              },
              "href": "https://api.spotify.com/v1/artists/76o4kCpWMmBGl8jIYfRHTk",
              "id": "76o4kCpWMmBGl8jIYfRHTk",
              "name": "Ken Dodd",
              "type": "artist",
              "uri": "spotify:artist:76o4kCpWMmBGl8jIYfRHTk"
            }
          ],
          "external_urls": {
            "spotify": "https://open.spotify.com/album/59TyQORxcvy9RWj7gkZMvB"
          },
          "href": "https://api.spotify.com/v1/albums/59TyQORxcvy9RWj7gkZMvB",
          "id": "59TyQORxcvy9RWj7gkZMvB",
          "images": [
            {
              "height": 640,
              "url": "https://i.scdn.co/image/ab67616d0000b27368b6e0998ac2c1726839bdcd",
              "width": 640
            },
            {
              "height": 300,
              "url": "https://i.scdn.co/image/ab67616d00001e0268b6e0998ac2c1726839bdcd",
              "width": 300
            },
            {
              "height": 64,
              "url": "https://i.scdn.co/image/ab67616d0000485168b6e0998ac2c1726839bdcd",
              "width": 64
            }
          ],
          "name": "Ken Dodd - His Greatest Hits",
          "release_date": "1988",
          "release_date_precision": "year",
          "total_tracks": 21,
          "type": "album",
          "uri": "spotify:album:59TyQORxcvy9RWj7gkZMvB"
        },
        "artists": [
          {
            "external_urls": {
              "spotify": "https://open.spotify.com/artist/76o4kCpWMmBGl8jIYfRHTk"
            },
            "href": "https://api.spotify.com/v1/artists/76o4kCpWMmBGl8jIYfRHTk",
            "id": "76o4kCpWMmBGl8jIYfRHTk",
            "name": "Ken Dodd",
            "type": "artist",
            "uri": "spotify:artist:76o4kCpWMmBGl8jIYfRHTk"
          }
        ],
        "disc_number": 1,
        "duration_ms": 120066,
        "explicit": true,
        "external_ids": {
          "isrc": "GBAYE6400258"
        },
        "external_urls": {
          "spotify": "https://open.spotify.com/track/6idaUJ1KK1mWyxQziMefhU"
        },
        "href": "https://api.spotify.com/v1/tracks/6idaUJ1KK1mWyxQziMefhU",
        "id": "6idaUJ1KK1mWyxQziMefhU",
        "is_local": false,
        "is_playable": true,
        "name": "Happiness",
        "popularity": 29,
        "preview_url": "https://p.scdn.co/mp3-preview/562c74eb408f2dca27076a61b517878e656eb55d?cid=774b29d4f13844c495f206cafdad9c86",
        "track_number": 1,
        "type": "track",
        "uri": "spotify:track:6idaUJ1KK1mWyxQziMefhU"
      },
      {
        "album": {
          "album_type": "album",
          "artists": [
            {
              "external_urls": {
                "spotify": "https://open.spotify.com/artist/76o4kCpWMmBGl8jIYfRHTk"
              },
              "href": "https://api.spotify.com/v1/artists/76o4kCpWMmBGl8jIYfRHTk",
              "id": "76o4kCpWMmBGl8jIYfRHTk",
              "name": "Ken Dodd",
              "type": "artist",
              "uri": "spotify:artist:76o4kCpWMmBGl8jIYfRHTk"
            }
          ],
          "external_urls": {
            "spotify": "https://open.spotify.com/album/1D7E2EHMoQM3nP9drEwv7o"
          },
          "href": "https://api.spotify.com/v1/albums/1D7E2EHMoQM3nP9drEwv7o",
          "id": "1D7E2EHMoQM3nP9drEwv7o",
          "images": [
            {
              "height": 640,
              "url": "https://i.scdn.co/image/ab67616d0000b2731ea0a21d873289c511dfaf92",
              "width": 640
            },
            {
              "height": 300,
              "url": "https://i.scdn.co/image/ab67616d00001e021ea0a21d873289c511dfaf92",
              "width": 300
            },
            {
              "height": 64,
              "url": "https://i.scdn.co/image/ab67616d000048511ea0a21d873289c511dfaf92",
              "width": 64
            }
          ],
          "name": "Ken Dodd",
          "release_date": "1991",
          "release_date_precision": "year",
          "total_tracks": 24,
          "type": "album",
          "uri": "spotify:album:1D7E2EHMoQM3nP9drEwv7o"
        },
        "artists": [
          {
            "external_urls": {
              "spotify": "https://open.spotify.com/artist/76o4kCpWMmBGl8jIYfRHTk"
            },
            "href": "https://api.spotify.com/v1/artists/76o4kCpWMmBGl8jIYfRHTk",
            "id": "76o4kCpWMmBGl8jIYfRHTk",
            "name": "Ken Dodd",
            "type": "artist",
            "uri": "spotify:artist:76o4kCpWMmBGl8jIYfRHTk"
          }
        ],
        "disc_number": 1,
        "duration_ms": 163026,
        "explicit": false,
        "external_ids": {
          "isrc": "GBAYE7600369"
        },
        "external_urls": {
          "spotify": "https://open.spotify.com/track/7bqfZygxuq03hqffjswjCK"
        },
        "href": "https://api.spotify.com/v1/tracks/7bqfZygxuq03hqffjswjCK",
        "id": "7bqfZygxuq03hqffjswjCK",
        "is_local": false,
        "is_playable": true,
        "name": "Love Me with All Your Heart (Cuando Calienta El Sol)",
        "popularity": 30,
        "preview_url": "https://p.scdn.co/mp3-preview/16f859e296fbbc2d1631559ffacb27dea8536662?cid=774b29d4f13844c495f206cafdad9c86",
        "track_number": 7,
        "type": "track",
        "uri": "spotify:track:7bqfZygxuq03hqffjswjCK"
      }
    ],
    "limit": 3,
    "next": "https://api.spotify.com/v1/search?query=ken+dodd&type=track&market=GB&offset=3&limit=3",
    "offset": 0,
    "previous": null,
    "total": 493
  }
}
